STA 199 - Intro statistics and plotting
…
distinct(flint, draw)

# A tibble: 3 × 1
  draw  
  <chr> 
1 first 
2 second
3 third 

How many unique homes are in the data set?

flint |>
  distinct(id)

# A tibble: 269 × 1
      id
   <dbl>
 1     1
 2     2
 3     4
 4     5
 5     6
 6     7
 7     8
 8     9
 9    12
10    13
# … with 259 more rows
…
