STA 199 - Tidy hypotheses
…
# find observed statistic
obs_mean_age = push_pull %>%
  drop_na(age) %>%
  summarize(meanAge = mean(age)) %>%
  pull()
# subtract observed_mean - desired_mean from age
age_and_null = push_pull %>%
  select(age) %>%
  drop_na(age) %>%
  mutate(nullAge = age - (obs_mean_age - 30))
# show data frame
age_and_null

# A tibble: 25 × 2
     age nullAge
   <dbl>   <dbl>
 1    41    35.8
 2    32    26.8
 3    44    38.8
 4    37    31.8
 5    37    31.8
 6    21    15.8
 7    33    27.8
 8    38    32.8
 9    49    43.8
10    33    27.8
# … with 15 more rows
…
